<svg xmlns="http://www.w3.org/2000/svg" width="58.922" height="51.773" viewBox="0 0 58.922 51.773">
  <g id="email_done" transform="translate(-13187 -3325.823)">
    <g id="Group_30" data-name="Group 30" transform="translate(13187 3339.481)">
      <path id="Path_6" data-name="Path 6" d="M88.217,156.484V191.4l17.025-17.526Z" transform="translate(-88.217 -154.901)" fill="#0376fe"/>
      <path id="Path_7" data-name="Path 7" d="M344.247,156.484V191.4l-16.94-17.456Z" transform="translate(-285.325 -154.901)" fill="#0376fe"/>
      <path id="Path_8" data-name="Path 8" d="M95.558,147.466h56.233l-22.1,23.012a8.341,8.341,0,0,1-12.032,0Z" transform="translate(-94.269 -147.466)" fill="#0376fe"/>
      <path id="Path_9" data-name="Path 9" d="M130.966,267.17a10.108,10.108,0,0,1-14.582,0l-3.749-3.9L95.558,281.048h56.233l-17.077-17.781Z" transform="translate(-94.269 -242.934)" fill="#0376fe"/>
    </g>
    <g id="Group_38" data-name="Group 38">
      <g id="checked" transform="translate(13208.185 3326.481)">
        <g id="Group_31" data-name="Group 31" transform="translate(0)">
          <path id="Path_10" data-name="Path 10" d="M9,0a9,9,0,1,0,9,9A9.007,9.007,0,0,0,9,0Zm5.028,6.629-5.75,5.7a.885.885,0,0,1-1.24.023L3.991,9.583A.914.914,0,0,1,3.923,8.32a.892.892,0,0,1,1.263-.045L7.6,10.484l5.141-5.141a.909.909,0,1,1,1.285,1.285Z" transform="translate(0)" fill="#00a10b"/>
        </g>
      </g>
      <g id="Ellipse_2" data-name="Ellipse 2" transform="matrix(1, -0.017, 0.017, 1, 13207.836, 3326.158)" fill="none" stroke="#fff" stroke-width="2">
        <ellipse cx="9.614" cy="9.5" rx="9.614" ry="9.5" stroke="none"/>
        <ellipse cx="9.614" cy="9.5" rx="8.614" ry="8.5" fill="none"/>
      </g>
    </g>
  </g>
</svg>
