<?xml version="1.0" encoding="UTF-8"?>
<svg width="24px" height="22px" viewBox="0 0 24 22" version="1.1" xmlns="http://www.w3.org/2000/svg" xmlns:xlink="http://www.w3.org/1999/xlink">
    <!-- Generator: Sketch 63.1 (92452) - https://sketch.com -->
    <title>portfolio (1)@2x</title>
    <desc>Created with Sketch.</desc>
    <g id="Page-1" stroke="none" stroke-width="1" fill="none" fill-rule="evenodd" opacity="0.5">
        <g id="42.-Job-seeker_Profile" transform="translate(-220.000000, -701.000000)" fill="#0F1010" fill-rule="nonzero">
            <g id="Group-15" transform="translate(198.000000, 670.000000)">
                <g id="portfolio-(1)" transform="translate(22.000000, 31.000000)">
                    <polygon id="Path" points="9.890625 11.25 14.109375 11.25 14.109375 12.65625 9.890625 12.65625"></polygon>
                    <path d="M19.4708862,12.65625 L15.515625,12.65625 L15.515625,13.359375 C15.515625,13.7479248 15.2010498,14.0625 14.8125,14.0625 L9.1875,14.0625 C8.79895022,14.0625 8.484375,13.7479248 8.484375,13.359375 L8.484375,12.65625 L4.52911378,12.65625 C3.61999509,12.65625 2.81597902,12.0767212 2.52813722,11.2142944 L0,3.62860106 L0,18.984375 C0,20.1474609 0.946289062,21.09375 2.109375,21.09375 L21.890625,21.09375 C23.0537109,21.09375 24,20.1474609 24,18.984375 L24,3.62915039 L21.4716797,11.2142944 C21.184021,12.0767212 20.3800049,12.65625 19.4708862,12.65625 Z" id="Path"></path>
                    <path d="M14.8125,0 L9.1875,0 C8.02441406,0 7.078125,0.946289063 7.078125,2.109375 L7.078125,2.8125 L1.20977784,2.8125 L3.86169431,10.7693482 C3.95782472,11.0570068 4.22625731,11.25 4.52911378,11.25 L8.484375,11.25 L8.484375,10.546875 C8.484375,10.1583252 8.79895022,9.84375 9.1875,9.84375 L14.8125,9.84375 C15.2010498,9.84375 15.515625,10.1583252 15.515625,10.546875 L15.515625,11.25 L19.4708862,11.25 C19.7737427,11.25 20.0421753,11.0570068 20.1383057,10.7693482 L22.7904053,2.8125 L16.921875,2.8125 L16.921875,2.109375 C16.921875,0.946289063 15.9755859,0 14.8125,0 Z M8.484375,2.8125 L8.484375,2.109375 C8.484375,1.7213745 8.7994995,1.40625 9.1875,1.40625 L14.8125,1.40625 C15.2005005,1.40625 15.515625,1.7213745 15.515625,2.109375 L15.515625,2.8125 L8.484375,2.8125 Z" id="Shape"></path>
                </g>
            </g>
        </g>
    </g>
</svg>